<svg width="25" height="25" viewBox="0 0 25 25" fill="none" xmlns="http://www.w3.org/2000/svg">
<path d="M22.4124 2.71186C22.3613 2.70978 22.3102 2.70943 22.259 2.71088H20.3313V1.05423C20.3314 0.391575 19.6988 0 19.0361 0H17.2591C16.5964 0 16.1145 0.391575 16.1145 1.05423V2.71082H8.88555V1.05423C8.88555 0.391575 8.40364 0 7.74098 0H5.96384C5.30124 0 4.66868 0.391575 4.66868 1.05423V2.71082H2.74101C1.51048 2.67651 0.48513 3.64629 0.450827 4.87676C0.449385 4.92784 0.449731 4.97904 0.451807 5.03012V22.4397C0.451807 23.765 1.41564 24.9999 2.74096 24.9999H22.2591C23.5844 24.9999 24.5482 23.765 24.5482 22.4397V5.03012C24.5986 3.80016 23.6423 2.76224 22.4124 2.71186ZM17.2591 1.20482H19.1265V4.51805H17.2591V1.20482ZM5.9639 1.20482H7.68079V4.51805H5.9639V1.20482ZM23.3434 22.4397C23.3434 23.1024 22.9217 23.7951 22.2591 23.7951H2.74101C2.07836 23.7951 1.65669 23.1024 1.65669 22.4397V9.63857H23.3434V22.4397ZM23.3434 5.03012V8.43374H1.65663V5.03012C1.60561 4.46685 2.02088 3.96885 2.58414 3.91783C2.63626 3.9131 2.68872 3.91241 2.74096 3.9157H4.66868V4.57835C4.66868 5.24101 5.30119 5.72293 5.96384 5.72293H7.74098C8.35625 5.73982 8.86866 5.25467 8.88555 4.63941C8.88613 4.61906 8.88613 4.5987 8.88555 4.57835V3.91564H16.1145V4.5783C16.0976 5.19356 16.5827 5.70598 17.198 5.72287C17.2184 5.72345 17.2387 5.72345 17.2591 5.72287H19.0362C19.6988 5.72287 20.3314 5.24095 20.3314 4.5783V3.91564H22.2591C22.8236 3.88007 23.31 4.30883 23.3455 4.8733C23.3488 4.92554 23.3481 4.978 23.3434 5.03012Z" fill="white"/>
<path d="M9.15654 17.8614L8.61438 20.8735C8.59293 21.0027 8.61415 21.1354 8.67485 21.2514C8.82907 21.5462 9.19309 21.6602 9.48787 21.506L12.1987 20.0903L14.9095 21.506L15.1806 21.5662C15.3113 21.5685 15.4389 21.526 15.542 21.4457C15.7221 21.3142 15.8147 21.0941 15.783 20.8734L15.2408 17.8614L17.4396 15.7529C17.597 15.5829 17.6541 15.3431 17.5902 15.1204C17.5091 14.9146 17.3264 14.7662 17.1083 14.7289L14.0963 14.277L12.7409 11.5361C12.6818 11.4141 12.5833 11.3156 12.4613 11.2565C12.1618 11.1115 11.8016 11.2367 11.6565 11.5361L10.3011 14.277L7.28906 14.7289C7.07102 14.7661 6.88826 14.9146 6.80715 15.1204C6.74332 15.3431 6.80046 15.5829 6.95773 15.7529L9.15654 17.8614ZM10.8132 15.4217C11.0023 15.3934 11.1626 15.2675 11.2349 15.0903L12.1987 13.1626L13.1625 15.0903C13.2348 15.2675 13.395 15.3934 13.5842 15.4217L15.7228 15.7228L14.1866 17.1988C14.0435 17.3404 13.9764 17.5417 14.0059 17.7409L14.3673 19.8795L12.4697 18.8554L12.1986 18.7951L11.9275 18.8554L10.03 19.8795L10.3914 17.7409C10.4209 17.5417 10.3538 17.3404 10.2107 17.1988L8.67451 15.7228L10.8132 15.4217Z" fill="white"/>
</svg>
